C:\Users\Lenovo\workspace\Project\Backend\src\main\java\pl\michal\controller\RestUploadController.java
C:\Users\Lenovo\workspace\Project\Backend\src\main\java\pl\michal\repository\TradeRepository.java
C:\Users\Lenovo\workspace\Project\Backend\src\main\java\pl\michal\entity\Trade.java
C:\Users\Lenovo\workspace\Project\Backend\src\main\java\pl\michal\Main.java
C:\Users\Lenovo\workspace\Project\Backend\src\main\java\pl\michal\Application.java
C:\Users\Lenovo\workspace\Project\Backend\src\main\java\pl\michal\controller\TradeController.java
C:\Users\Lenovo\workspace\Project\Backend\src\main\java\pl\michal\converter\ConverterCSV.java
