C:\Users\Lenovo\workspace\springREST\src\main\java\pl\michal\JsonResponse.java
C:\Users\Lenovo\workspace\springREST\src\main\java\pl\michal\Application.java
C:\Users\Lenovo\workspace\springREST\src\main\java\pl\michal\controller\StaffController.java
C:\Users\Lenovo\workspace\springREST\src\main\java\pl\michal\entity\Staff.java
C:\Users\Lenovo\workspace\springREST\src\main\java\pl\michal\entity\Profession.java
C:\Users\Lenovo\workspace\springREST\src\main\java\pl\michal\controller\ProfessionController.java
C:\Users\Lenovo\workspace\springREST\src\main\java\pl\michal\repository\ProfessionRepository.java
C:\Users\Lenovo\workspace\springREST\src\main\java\pl\michal\repository\StaffRepository.java
